{
    "prepare_queue": {
        "installed": [],
        "uninstalled": []
    },
    "config_munge": {
        "files": {
            "framework": {
                "parents": {
                    "ImageIO.framework": [
                        {
                            "xml": "true",
                            "count": 1
                        }
                    ],
                    "CoreLocation.framework": [
                        {
                            "xml": "false",
                            "count": 1
                        }
                    ],
                    "CoreGraphics.framework": [
                        {
                            "xml": "false",
                            "count": 2
                        }
                    ],
                    "AssetsLibrary.framework": [
                        {
                            "xml": "false",
                            "count": 1
                        }
                    ],
                    "MobileCoreServices.framework": [
                        {
                            "xml": "false",
                            "count": 1
                        }
                    ]
                }
            },
            "config.xml": {
                "parents": {
                    "/*": [
                        {
                            "xml": "<feature name=\"Camera\"><param name=\"ios-package\" value=\"CDVCamera\" /></feature>",
                            "count": 1
                        },
                        {
                            "xml": "<preference name=\"CameraUsesGeolocation\" value=\"false\" />",
                            "count": 1
                        }
                    ]
                }
            },
            "*-Info.plist": {
                "parents": {
                    "NSLocationWhenInUseUsageDescription": [
                        {
                            "xml": "<string />",
                            "count": 1
                        }
                    ]
                }
            }
        }
    },
    "installed_plugins": {
        "org.apache.cordova.camera": {
            "PACKAGE_NAME": "com.cordova.hello"
        }
    },
    "dependent_plugins": {}
}